/home/bratjuuc/Документы/PLandMP/Task9_1/src/main/java/LambdaDemo.java
/home/bratjuuc/Документы/PLandMP/Task9_1/src/main/java/StreamAPIDemo.java
/home/bratjuuc/Документы/PLandMP/Task9_1/src/main/java/LambdaRunner.java
/home/bratjuuc/Документы/PLandMP/Task9_1/src/main/java/Student.java
/home/bratjuuc/Документы/PLandMP/Task9_1/src/main/java/Human.java
